{"fname":"Harshal","lname":"Faldu","cnumber":"8320831797","email":"harshal.faldu103396@marwadiuniversity.ac.in","pass":"Harshal10052000"}
{"fname":"Sandip","lname":"Ghodasara","cnumber":"9924466288","email":"sandip@gmail.com","pass":"Sandip2020"}
{"fname":"param","lname":"teraiya","cnumber":"7874695524","email":"dhcghfcvthgv@gmail.com","pass":"fhjkhhgW513546"}
